{
  "name": "",
  "css_prefix_text": "icon-",
  "css_use_suffix": false,
  "hinting": true,
  "units_per_em": 1000,
  "ascent": 850,
  "glyphs": [
    {
      "uid": "2d3be3e856fc1e4ac067590d2ded1b07",
      "css": "plus-squared-alt",
      "code": 61846,
      "src": "fontawesome"
    },
    {
      "uid": "18ef25350258541e8e54148ed79845c0",
      "css": "minus-squared-alt",
      "code": 61767,
      "src": "fontawesome"
    },
    {
      "uid": "8cbd5bcfb00043b8094fd7ac21ae5e06",
      "css": "angle-circled-up",
      "code": 61753,
      "src": "fontawesome"
    },
    {
      "uid": "c35e0796f6f806945a44b1655ce7bbe7",
      "css": "angle-circled-down",
      "code": 61754,
      "src": "fontawesome"
    },
    {
      "uid": "c53415fbd2695033bd7180d7a9ed4934",
      "css": "rebel",
      "code": 61904,
      "src": "fontawesome"
    },
    {
      "uid": "f3f90c8c89795da30f7444634476ea4f",
      "css": "angle-left",
      "code": 61700,
      "src": "fontawesome"
    },
    {
      "uid": "7bf14281af5633a597f85b061ef1cfb9",
      "css": "angle-right",
      "code": 61701,
      "src": "fontawesome"
    },
    {
      "uid": "98687378abd1faf8f6af97c254eb6cd6",
      "css": "cog-alt",
      "code": 59394,
      "src": "fontawesome"
    },
    {
      "uid": "44e04715aecbca7f266a17d5a7863c68",
      "css": "plus",
      "code": 59393,
      "src": "fontawesome"
    },
    {
      "uid": "12f4ece88e46abd864e40b35e05b11cd",
      "css": "ok",
      "code": 59392,
      "src": "fontawesome"
    }
  ]
}